<svg width="75" height="75" viewBox="0 0 75 75" fill="none" xmlns="http://www.w3.org/2000/svg">
<path d="M54.0768 25.601C55.2212 26.7454 55.2212 28.6005 54.0768 29.7443L34.4227 49.399C33.2783 50.5428 31.4238 50.5428 30.2794 49.399L20.9232 40.0423C19.7788 38.8985 19.7788 37.0434 20.9232 35.8995C22.0671 34.7551 23.9222 34.7551 25.066 35.8995L32.3507 43.1843L49.9334 25.601C51.0778 24.4572 52.9329 24.4572 54.0768 25.601ZM75 37.5C75 58.2281 58.2253 75 37.5 75C16.7719 75 0 58.2253 0 37.5C0 16.7719 16.7747 0 37.5 0C58.2281 0 75 16.7747 75 37.5ZM69.1406 37.5C69.1406 20.0106 54.9871 5.85938 37.5 5.85938C20.0106 5.85938 5.85938 20.0129 5.85938 37.5C5.85938 54.9894 20.0129 69.1406 37.5 69.1406C54.9894 69.1406 69.1406 54.9871 69.1406 37.5Z" fill="url(#paint0_linear)"/>
<defs>
<linearGradient id="paint0_linear" x1="0" y1="37.5" x2="75" y2="37.5" gradientUnits="userSpaceOnUse">
<stop stop-color="#9171CA"/>
<stop offset="1" stop-color="#284771"/>
</linearGradient>
</defs>
</svg>
