<svg width="257" height="143" viewBox="0 0 257 143" fill="none" xmlns="http://www.w3.org/2000/svg">
<path d="M194.536 108.267C194.536 110.198 192.982 111.75 191.049 111.75H16.0108C14.0781 111.75 12.5244 110.198 12.5244 108.267V3.48273C12.5244 1.57101 14.0781 0 16.0108 0H191.049C192.982 0 194.536 1.55209 194.536 3.48273V108.267Z" fill="#303748"/>
<path d="M184.039 11.3203H23.0215V101.322H184.039V11.3203Z" fill="#F9F9F7"/>
<path d="M3.73269 116.899H207.212C209.258 116.899 210.925 115.233 210.925 113.189V106.621H0V113.189C0 115.233 1.66739 116.899 3.73269 116.899Z" fill="#222833"/>
<path d="M174.015 20.1211H32.5332V101.303H174.015V20.1211Z" fill="#ECEBE4"/>
<path d="M167.876 22.5234H35.8491V29.6782H167.876V22.5234Z" fill="#F9F9F7"/>
<path d="M87.8981 33.2754H37.7437V97.8762H87.8981V33.2754Z" fill="#F9F9F7"/>
<path d="M81.2858 75.1641H42.0073V93.9216H81.2858V75.1641Z" fill="#D3D2CD"/>
<path d="M81.2858 38.1797H42.0073V40.8296H81.2858V38.1797Z" fill="#D3D2CD"/>
<path d="M81.2858 44.1426H42.0073V46.7925H81.2858V44.1426Z" fill="#D3D2CD"/>
<path d="M81.2858 51.2949H42.0073V53.9448H81.2858V51.2949Z" fill="#D3D2CD"/>
<path d="M81.2858 57.2578H42.0073V59.9077H81.2858V57.2578Z" fill="#D3D2CD"/>
<path d="M167.876 33.2754H102.109V36.4553H167.876V33.2754Z" fill="#D3D2CD"/>
<path d="M167.876 39.2383H102.109V42.4182H167.876V39.2383Z" fill="#D3D2CD"/>
<path d="M167.876 46.3926H102.109V49.5725H167.876V46.3926Z" fill="#D3D2CD"/>
<path d="M167.876 53.9453H102.109V96.003H167.876V53.9453Z" fill="#F9F9F7"/>
<path d="M163.632 58.584H107.793V77.5119H163.632V58.584Z" fill="#D3D2CD"/>
<path d="M109.423 24.3223H37.7437V27.7104H109.423V24.3223Z" fill="#D3D2CD"/>
<path d="M165.262 24.3223H136.878V27.7104H165.262V24.3223Z" fill="#D3D2CD"/>
<path d="M231.749 92.3304C231.749 92.3304 201.129 71.0365 210.357 43.0801C210.376 43.0801 230.839 65.4718 231.749 92.3304Z" fill="#02797D"/>
<path d="M235.86 94.5438C235.86 94.5438 268.09 63.9564 252.174 32.6875C252.174 32.7064 232.109 62.7639 235.86 94.5438Z" fill="#02797D"/>
<path d="M230.479 94.5448C230.479 94.5448 256.475 58.525 235.046 30.7578C235.046 30.7578 220.911 63.9952 230.479 94.5448Z" fill="#036D6D"/>
<path d="M246.869 115.706L223.601 115.612L216.761 86.7656H254.05L246.869 115.706Z" fill="#7494C9"/>
<path d="M115.77 131.53L113.554 131.057L112.189 134.237L110.977 135.448L103.53 138.476L115.335 138.249L115.77 131.53Z" fill="#171B23"/>
<path d="M167.706 93.1823C167.706 93.1823 159.502 103.46 152.491 105.921C152.491 105.921 134.605 106.413 121.076 100.205C121.076 100.205 119.674 111.486 117.874 126.117L116.547 133.347L112.36 132.59C112.36 132.59 107.623 98.6714 109.328 92.747C111.034 86.8225 125.889 89.2075 128.371 89.3589C129.451 89.4157 132.956 88.9425 139.607 88.4693C147.546 87.9393 167.706 93.1823 167.706 93.1823Z" fill="#6884BC"/>
<path d="M132.236 136.053L130.038 135.58L128.655 138.741L127.442 139.971L120.015 143L131.819 142.773L132.236 136.053Z" fill="#171B23"/>
<path d="M105.595 44.8589C105.595 44.8589 103.625 40.373 102.507 40.2216C101.56 40.0891 98.0732 41.149 104.023 46.0703L105.595 44.8589Z" fill="#FE7A42"/>
<path d="M140.497 60.9663L120.337 70.1274L103.397 45.843L105.368 44.3477L121.303 60.9853L139.663 53.8116C139.663 53.8116 147.754 50.6317 147.28 55.0419C147.034 57.2754 144.609 59.0168 140.497 60.9663Z" fill="#171B23"/>
<path d="M164.333 58.2034C164.333 58.2034 144.476 51.5787 142.165 51.8437C139.853 52.1087 138.186 60.5316 137.826 63.3708C137.295 67.516 139.891 71.5476 140.933 76.4121C141.975 81.2765 139.607 88.4881 139.607 88.4881L169.961 95.851L164.674 80.3491L164.333 58.2034Z" fill="#D55C3E"/>
<path d="M169.961 95.8509C169.961 95.8509 173.447 107.965 166.02 108.003C158.194 108.04 150.672 108.097 135.078 104.047C135.078 104.047 134.301 118.621 133.714 130.129L132.899 137.435L128.655 136.962C128.655 136.962 121.53 103.479 122.819 97.4408C124.107 91.4028 139.493 91.6678 141.975 91.611C143.017 91.5921 148.455 91.2893 153.988 92.16C161.7 93.3903 169.961 95.8509 169.961 95.8509Z" fill="#7494C9"/>
<path d="M154.329 50.1026L155.182 55.6674C155.182 55.6674 147.963 59.7369 148.91 57.1059C149.8 54.6642 150.71 49.7051 150.71 49.7051L154.329 50.1026Z" fill="#FE7A42"/>
<path d="M155.011 43.8558C155.333 45.0104 155.978 47.2628 155.182 48.6635C154.386 50.0641 153.173 52.5626 151.43 52.998C149.687 53.4333 148.872 51.8434 148.683 51.143C148.38 50.0263 148.683 43.9315 151.525 42.758C153.685 41.8873 154.765 42.9851 155.011 43.8558Z" fill="#FF8155"/>
<path d="M150.331 43.761C150.331 43.761 151.392 45.067 153.287 44.802C155.201 44.556 154.765 46.3541 154.727 46.5623C154.708 46.7705 154.102 49.3447 154.727 49.4583C155.371 49.5719 156.584 46.4109 155.883 44.1206C155.201 41.8304 151.733 41.13 150.331 43.761Z" fill="#171B23"/>
<path d="M154.215 50.3678C154.215 50.3678 152.131 51.9766 150.217 51.5224C149.005 51.2385 148.607 49.0239 148.664 48.5696C148.721 48.1154 147.622 52.5634 150.312 53.0177C153.003 53.4909 154.215 50.3678 154.215 50.3678Z" fill="#171B23"/>
<path d="M108.021 73.9707L110.522 88.2423L133.866 96.6652L131.346 82.3936L108.021 73.9707Z" fill="#552226"/>
<path d="M145.026 91.9535L132.293 87.6758L133.847 96.6665L145.026 91.9535Z" fill="#421A1F"/>
<path d="M140.346 93.6719C140.346 93.6719 135.457 93.9179 134.908 94.9022C134.453 95.735 134.207 99.3692 140.914 95.5647L140.346 93.6719Z" fill="#FE7A42"/>
<path d="M167.839 66.8143L169.241 88.9032L140.497 96.0768L139.796 93.6919L161.037 84.7201L160.847 65.0351C160.847 65.0351 160.753 56.3472 164.713 58.3725C166.702 59.3946 167.479 62.2906 167.839 66.8143Z" fill="#171B23"/>
<path d="M161.017 84.7206L160.979 81.4082L162.419 84.7206L160.979 87.4083L156.583 87.6733L157.91 86.0266L161.017 84.7206Z" fill="#0A0C0F"/>
</svg>
